Dokumen 6 skor: 1.3
Dokumen 25 skor: 1
Dokumen 280 skor: 0.3
Dokumen 241 skor: 0.3
Dokumen 68 skor: 0.3
Dokumen 258 skor: 0.3
Dokumen 242 skor: 0.3
Dokumen 46 skor: 0.3
Dokumen 300 skor: 0.3
Dokumen 262 skor: 0.3
Dokumen 337 skor: 0.3
Dokumen 303 skor: 0.3
